{
  "compilerOptions": {
      "types": [
          "node",
          "webdriverio/async",
          "@wdio/mocha-framework"
      ]
  },
  "include": [
    "**/*.js",
    "**/*.json",
    "node_modules/expect-webdriverio"
  ]
}
